﻿@startuml

Title: Статусы задач
' Settings
skinparam component {
  FontSize 13
  'InterfaceBackgroundColor RosyBrown
  'InterfaceBorderColor orange
  'BackgroundColor<<Apache>> Red
  'BorderColor<<Apache>> #FF6655
  'FontName Courier
  'BorderColor black
  'BackgroundColor gold
  ArrowFontName Impact
  'ArrowColor #FF6655
  ArrowFontColor #000000
}
' Definitions
[_Ini] as "Initiation"
[_RtP] as "Ready to plan"
[_ReI] as "Re-initialization"
[_Pl] as "Planing"
[_RtW] as "Ready to work"
[_RePl] as "Re-planing"
[_Wk] as "Working"
[_RtR] as "Ready to review"
[_ReW] as "Re-working"
[_Rw] as "Reviewing"
[_RtRg] as "Ready to review(GD)"
[_RwGD] as "Reviewing(GD)"
[_RtRP] as "Ready to review(Prod)"
[_RwP] as "Reviewing(Prod)"
[_Done] as "Done"
[_Cl] as "Closed"
[_Frz] as "Frozen"
[_Dis] as "Discussion"
[_Rej] as "Rejected"

actor Lead 
actor Worker
actor Manager
actor Gamedesigner as _GD
actor Produsser

' Dependencies
left to right direction

Manager -up-> _Rej #FF0000 : "Выполнение не требуется"
Manager -up-> _Frz #FF0000 : "Задача остановлена менеджером"
Manager -up-> _Cl #FF0000 : "Родительская задача сдана заказчику"
Manager -up-> _RtW #FF0000 : "Задача спланирована, можно приступать"
Manager -up-> _Pl #FF0000 : "Задача в стадии планирования"
Manager -up-> _ReI #FF0000 : "Задача возвращается на доработку"
Manager -up-> _RtP #FF0000 : "Задача готова к планированию"
Manager -up-> _Ini #FF0000 : "Добавлена задача без оперативной информации"

Lead -down-> _Rej #00FF00 : "Отказ от задачи"
Lead -down-> _Frz #00FF00 : "Задача остановлена"
Lead -down-> _Rw #00FF00 : "В процессе утверждения"
Lead -down-> _RtRg #00FF00 : "Утверждена лидом, ждет утверждения геймдизайнером "
Lead -down-> _ReW #00FF00 : "Работа не была принята, дорабатывается"
Lead -down-> _RtP #00FF00 : "Лид внес необходимую для исполнения информацию"
Lead -down-> _Ini #00FF00 : "Новая задача ожидает регистрации менеджера"

Worker -down-> _RtR #0000FF : "Задача выполнена, ожидается проверка заказчиком"
Worker -down-> _Wk #0000FF : "Работа ведется"
Worker -down-> _RePl #0000FF : "Исполнитель не может приступить к выполнению"

Produsser -up-> _Done #00FFFF : "Задача принята продюссером"
Produsser -up-> _RwP #00FFFF : "Продюссер принимает результат"

_GD -down-> _RwGD #305090 : "Геймдизайнер принимает результат"
_GD -down-> _RtRP #305090 : "Геймдизайнер принял результат\n и ожидает фидбек от продюссера"

Lead -> _Dis #00FF00
Worker -> _Dis #0000FF
Manager -> _Dis #FF0000
_GD -> _Dis #305090
Produsser -> _Dis #00FFFF

note left of _Dis : "Статус ставится если не дотаточно данных для выполнения задачи"

@enduml