@startuml

!include Helper_Header.puml
!define ENABLE_SHARED
'!define ENABLE_ART

!ifdef ENABLE_SHARED
actor HeadOfDepartment 
HeadOfDepartment _link(down) SeniorPerformer1
HeadOfDepartment _link SeniorPerformer2
SeniorPerformer1 _link Performer1
SeniorPerformer2 _link Performer2
SeniorPerformer1 _link Performer3
SeniorPerformer2 _link JuniorPerformer1
Performer2 _link JuniorPerformer1
Performer1 _link JuniorPerformer2
Performer3 _link JuniorPerformer3
database Dictionary as _Dict
HeadOfDepartment _link _Dict : Write
SeniorPerformer1 ._link _Dict : Request
SeniorPerformer2 ._link _Dict : Request

ExecutiveDirector _link HeadOfDepartment
ExecutiveDirector _link HeadOfDepartment2
ExecutiveDirector _link HeadOfDepartment3
HeadOfDepartment - HeadOfDepartment2
HeadOfDepartment2 - HeadOfDepartment3

HeadOfDepartment2 _link(down) SeniorPerformer4
SeniorPerformer1 <_link(right) SeniorPerformer4

HeadOfDepartment3 _link(down) SeniorPerformer5
SeniorPerformer4 <_link(right) SeniorPerformer5 
!endif

!ifdef ENABLE_ART
ChiefArtDirector as _CAD
ProjectArtDirector as _PAD
CiefArtist as _CA
InterfaceDesigner as _ID
ConceptArtist as _C2A
MarketingDesigner as _MD
PostArtist as _P2A
EnvironmentArtist as _EA
ParticleArtist as _PA
Animator as _An
VectorIllustrator as _VI
RastrIllustrator as _RI
!endif

@enduml