﻿@startuml

!include Helper_Header.puml

title Декомпозиция проекта "Кафе Элли"

'Def!
cloud _game as "Игра"
[_blocking] as "Blocking"
[_meta] as "Metagame"
[_core] as "Core gameplay"
[_tablet] as "Tablet"
[_mark] as "Marketing"
[_publish] as "Издания"

'Use!
_blocking _link(l) _game
_meta _link() _game
_core _link(u) _game
_tablet _link() _meta
_publish _link() _game

'Blocking!
splash _link(l) _blocking
title_s _link splash
metagame _link title_s
core_gameplay _link() metagame : start
metagame _link core_gameplay : win/loose
tablet _link() metagame
options _link core_gameplay
options _link metagame
autors _link options
sound _link options
music _link options
orientation_win _link options
fullscreen_win _link options
cursor_win _link options
meta_ui _link(u) metagame
tokens _link meta_ui
money _link meta_ui
life _link meta_ui
start_btn _link meta_ui

'Metagame!
!define _c #000000
!define _l #000000

() customers _c
() event_sys _c
() inapp
() commercials
() push
() analytics
() web
() achvements

customers _link _meta _l
event_sys _link _meta _l
camera _link _meta _l
cursor_win _link _meta _l
interior _link _meta _l
bar _link interior _l
equipment _link interior _l
placements _link interior _l
controller _link camera _l
story _link customers _l
crowd _link customers _l
dialog _link story _l
animations _link story _l
animations _link crowd _l
generator _link crowd _l

friends _link _tablet
socials _link _tablet
tasks _link _tablet

'Core!
field _link(u) _core _l
chips _link field _l
slots _link field _l
input _link field _l
ui _link(u) _core _l
busters _link ui _l
score _link ui _l
moves _link ui _l
time _link ui _l
swap _link chips _l
craft _link swap _l
alchemy _link swap _l

'Издания
_publish _link Steam
_publish _link IOs
_publish _link Android

Steam _link Shop

@enduml