@startuml
	!include Helper_Header.puml
	
	title Work Tree
	
	Frame m3 as "Match 3"
	
	m3 at [UI]
	m3 at [3D]
	m3 at [Gameplay]
	m3 at [Editor]
	
	Options at UI
	Tasks at UI
	Market at UI
	HUD at UI
		
@enduml